[{
        "icon": "american-football-outline",
        "name": "Action Sheet",
        "redirectTo": "/action-sheet"
    },
    {
        "icon": "alert-circle-outline",
        "name": "Alert",
        "redirectTo": "/alert"
    },
    {
        "icon": "beaker-outline",
        "name": "Avatar",
        "redirectTo": "/avatar"
    },
    {
        "icon": "radio-button-off-outline",
        "name": "Buttons",
        "redirectTo": "/buttons"
    },
    {
        "icon": "card-outline",
        "name": "Cards",
        "redirectTo": "/cards"
    },
    {
        "icon": "checkmark-circle-outline",
        "name": "Checks",
        "redirectTo": "/checks"
    },
    {
        "icon": "calendar-outline",
        "name": "Date Time",
        "redirectTo": "/date-time"
    },
    {
        "icon": "car-outline",
        "name": "Fab",
        "redirectTo": "/fab"
    },
    {
        "icon": "grid-outline",
        "name": "Grid",
        "redirectTo": "/grid"
    },
    {
        "icon": "infinite-outline",
        "name": "Infinite",
        "redirectTo": "/infinite"
    },
    {
        "icon": "hammer-outline",
        "name": "Inputs",
        "redirectTo": "/inputs"
    },
    {
        "icon": "list-outline",
        "name": "Lista",
        "redirectTo": "/lists"
    },
    {
        "icon": "list-outline",
        "name": "Reorder",
        "redirectTo": "/list-reorder"
    },
    {
        "icon": "refresh-circle-outline",
        "name": "Loading",
        "redirectTo": "/loading"
    },
    {
        "icon": "phone-portrait-outline",
        "name": "Modal",
        "redirectTo": "/modal"
    },
    {
        "icon": "tablet-portrait-outline",
        "name": "PopOver",
        "redirectTo": "/popover"
    },
    {
        "icon": "code-working-outline",
        "name": "PogressBar",
        "redirectTo": "/progress"
    },
    {
        "icon": "arrow-down-circle-outline",
        "name": "Refresher",
        "redirectTo": "/refresher"
    },
    {
        "icon": "search-outline",
        "name": "Search",
        "redirectTo": "/search"
    },
    {
        "icon": "copy-outline",
        "name": "Segment",
        "redirectTo": "/segment"
    },
    {
        "icon": "albums-outline",
        "name": "Slides",
        "redirectTo": "/slides"
    },
    {
        "icon": "cog-outline",
        "name": "Tabs",
        "redirectTo": "/tabs"
    },
    {
        "icon": "pricetag-outline",
        "name": "Toast",
        "redirectTo": "/toast"
    }
]
